{
  "books": [
    {
      "title": "Prison Break",
      "author": "Unknown Author",
      "description": "hello there is an demo description hello there is an demo description hello there is an demo descriptionhello there is an demo descriptionhello there is an demo description",
      "genre": "Fiction",
      "id": 1
    },
    {
      "id": 2,
      "title": "Game Of Thrones",
      "author": "Unknown Author",
      "description": "hello there is an demo description hello there is an demo description hello there is an demo descriptionhello there is an demo descriptionhello there is an demo description",
      "genre": "History"
    },
    {
      "id": 3,
      "title": "Baby Driver",
      "author": "Unknown Author",
      "description": "hello there is an demo description hello there is an demo description hello there is an demo descriptionhello there is an demo descriptionhello there is an demo description",
      "genre": "Fiction"
    },
    {
      "id": 4,
      "title": "The Alchemist",
      "author": "Unknown Author",
      "description": "hello there is an demo description hello there is an demo description hello there is an demo descriptionhello there is an demo descriptionhello there is an demo description",
      "genre": "Novel"
    },
    {
      "id": 5,
      "title": "The Gods Angel",
      "author": "Unknown Author",
      "description": "hello there is an demo description hello there is an demo description hello there is an demo descriptionhello there is an demo descriptionhello there is an demo description",
      "genre": "Fiction"
    },
    {
      "title": "Mission Impossible",
      "author": "Unknown Author",
      "description": "Hello there how are you bro",
      "genre": "Thriller",
      "id": 63371
    }
  ],
  "genres": [
    {
      "id": 1,
      "name": "Fiction"
    },
    {
      "id": 2,
      "name": "Non-Fiction"
    },
    {
      "id": 3,
      "name": "Thriller"
    },
    {
      "id": 4,
      "name": "Novel"
    },
    {
      "id": 5,
      "name": "History"
    },
    {
      "id": 6,
      "name": "Fantasy"
    }
  ]
}
